﻿{
  "Descriptor": {
    "UId": "056dbdd4-8121-4120-ba4b-1c8bf3ba4511",
    "Name": "UsrConcertsInFolder",
    "ModifiedOnUtc": "\/Date(1632223045000)\/",
    "Parent": {
      "UId": "4f63bafb-e9e7-4082-b92e-66b97c14017c",
      "Name": "BaseItemInFolder"
    },
    "ManagerName": "EntitySchemaManager",
    "Caption": "Концертные программы в групі",
    "DependsOn": []
  }
}