﻿{
  "Descriptor": {
    "UId": "423603ed-7839-4a6e-92e0-28309cfa3685",
    "Name": "UsrConcerts1MiniPage",
    "ModifiedOnUtc": "\/Date(1632307931000)\/",
    "Parent": {
      "UId": "8e06a577-08e4-424e-bd89-798a34e1b928",
      "Name": "BaseMiniPage"
    },
    "ManagerName": "ClientUnitSchemaManager",
    "Caption": "UsrConcerts1MiniPage",
    "DependsOn": []
  }
}